{
  "stdin_port": 44975, 
  "ip": "127.0.0.1", 
  "control_port": 36658, 
  "hb_port": 48271, 
  "signature_scheme": "hmac-sha256", 
  "key": "c156611e-176d-48c2-941a-6970796f4538", 
  "shell_port": 52069, 
  "transport": "tcp", 
  "iopub_port": 33706
}